{
  "filename": "0.jpg",
  "size": 20161,
  "regions": [
    {
      "shape_attributes": {
        "name": "polygon",
        "all_points_x": [
          23,
          23,
          90,
          90
        ],
        "all_points_y": [
          8,
          25,
          25,
          8
        ]
      },
      "region_attributes": {
        "text": "\u4e2d\u56fd\u79fb\u52a8",
        "paragraph": "1#1",
        "direction": "\u6a2a\u6392"
      }
    },
    {
      "shape_attributes": {
        "name": "polygon",
        "all_points_x": [
          63,
          63,
          94,
          94
        ],
        "all_points_y": [
          139,
          154,
          154,
          139
        ]
      },
      "region_attributes": {
        "text": "\u76f8\u673a",
        "paragraph": "2#1",
        "direction": "\u6a2a\u6392"
      }
    },
    {
      "shape_attributes": {
        "name": "polygon",
        "all_points_x": [
          188,
          188,
          218,
          218
        ],
        "all_points_y": [
          139,
          153,
          153,
          139
        ]
      },
      "region_attributes": {
        "text": "\u4e3b\u9898",
        "paragraph": "3#1",
        "direction": "\u6a2a\u6392"
      }
    },
    {
      "shape_attributes": {
        "name": "polygon",
        "all_points_x": [
          49,
          49,
          107,
          107
        ],
        "all_points_y": [
          273,
          288,
          288,
          273
        ]
      },
      "region_attributes": {
        "text": "\u751f\u6d3b\u670d\u52a1",
        "paragraph": "4#1",
        "direction": "\u6a2a\u6392"
      }
    },
    {
      "shape_attributes": {
        "name": "polygon",
        "all_points_x": [
          188,
          188,
          217,
          217
        ],
        "all_points_y": [
          273,
          288,
          288,
          273
        ]
      },
      "region_attributes": {
        "text": "\u97f3\u4e50",
        "paragraph": "5#1",
        "direction": "\u6a2a\u6392"
      }
    }
  ],
  "file_attributes": {}
}