{
  "filename": "12.jpg",
  "size": 19394,
  "regions": [
    {
      "shape_attributes": {
        "name": "polygon",
        "all_points_x": [
          15,
          15,
          529,
          531
        ],
        "all_points_y": [
          18,
          75,
          77,
          19
        ]
      },
      "region_attributes": {
        "text": "\u5374\u662f\u6211\u4eec\u6240\u4e0d\u80fd\u5ffd\u89c6\u7684.",
        "paragraph": "1#1",
        "direction": "\u6a2a\u6392"
      }
    }
  ],
  "file_attributes": {}
}