{
  "filename": "13.jpg",
  "size": 15696,
  "regions": [
    {
      "shape_attributes": {
        "name": "polygon",
        "all_points_x": [
          3,
          4,
          236,
          234
        ],
        "all_points_y": [
          24,
          43,
          33,
          14
        ]
      },
      "region_attributes": {
        "text": "shall (both before as well",
        "paragraph": "1#1",
        "direction": "\u6a2a\u6392"
      }
    },
    {
      "shape_attributes": {
        "name": "polygon",
        "all_points_x": [
          1,
          1,
          243,
          241
        ],
        "all_points_y": [
          51,
          71,
          58,
          38
        ]
      },
      "region_attributes": {
        "text": "at the rate of twelve percent",
        "paragraph": "2#1",
        "direction": "\u6a2a\u6392"
      }
    },
    {
      "shape_attributes": {
        "name": "polygon",
        "all_points_x": [
          1,
          0,
          235,
          235
        ],
        "all_points_y": [
          77,
          94,
          88,
          66
        ]
      },
      "region_attributes": {
        "text": "ntil the date full payment is",
        "paragraph": "3#1",
        "direction": "\u6a2a\u6392"
      }
    }
  ],
  "file_attributes": {}
}