{
  "filename": "14.jpg",
  "size": 13650,
  "regions": [
    {
      "shape_attributes": {
        "name": "polygon",
        "all_points_x": [
          44,
          44,
          277,
          277
        ],
        "all_points_y": [
          3,
          21,
          21,
          3
        ]
      },
      "region_attributes": {
        "text": "MORGA753116SM9IJ 35",
        "paragraph": "1#1",
        "direction": "\u6a2a\u6392"
      }
    },
    {
      "shape_attributes": {
        "name": "polygon",
        "all_points_x": [
          60,
          60,
          335,
          335
        ],
        "all_points_y": [
          42,
          86,
          86,
          42
        ]
      },
      "region_attributes": {
        "text": "A. Sample",
        "paragraph": "2#1",
        "direction": "\u6a2a\u6392"
      }
    }
  ],
  "file_attributes": {}
}