{
  "filename": "2.jpg",
  "size": 3976,
  "regions": [
    {
      "shape_attributes": {
        "name": "polygon",
        "all_points_x": [
          12,
          12,
          91,
          91
        ],
        "all_points_y": [
          4,
          20,
          20,
          4
        ]
      },
      "region_attributes": {
        "text": "OcrevusTM",
        "paragraph": "1#1",
        "direction": "\u6a2a\u6392"
      }
    },
    {
      "shape_attributes": {
        "name": "polygon",
        "all_points_x": [
          12,
          12,
          118,
          118
        ],
        "all_points_y": [
          25,
          43,
          43,
          25
        ]
      },
      "region_attributes": {
        "text": "(ocrelizumab)",
        "paragraph": "2#1",
        "direction": "\u6a2a\u6392"
      }
    }
  ],
  "file_attributes": {}
}