{
  "filename": "9.jpg",
  "size": 5701,
  "regions": [
    {
      "shape_attributes": {
        "name": "polygon",
        "all_points_x": [
          77,
          78,
          207,
          205
        ],
        "all_points_y": [
          50,
          73,
          60,
          38
        ]
      },
      "region_attributes": {
        "text": "3\uff09\u6211\u5f97\u4e0d\u5230\u4e0a",
        "paragraph": "2#1",
        "direction": "\u6a2a\u6392"
      }
    },
    {
      "shape_attributes": {
        "name": "polygon",
        "all_points_x": [
          211,
          209,
          325,
          328
        ],
        "all_points_y": [
          38,
          61,
          69,
          48
        ]
      },
      "region_attributes": {
        "text": "\u5927\u5b66\u7684\u673a\u4f1a\u3002",
        "paragraph": "2#2",
        "direction": "\u6a2a\u6392"
      }
    },
    {
      "shape_attributes": {
        "name": "polygon",
        "all_points_x": [
          105,
          105,
          226,
          226
        ],
        "all_points_y": [
          11,
          32,
          23,
          2
        ]
      },
      "region_attributes": {
        "text": "Her conduct",
        "paragraph": "1#1",
        "direction": "\u6a2a\u6392"
      }
    },
    {
      "shape_attributes": {
        "name": "polygon",
        "all_points_x": [
          233,
          230,
          419,
          423
        ],
        "all_points_y": [
          2,
          23,
          48,
          25
        ]
      },
      "region_attributes": {
        "text": "was above suspicion.",
        "paragraph": "1#2",
        "direction": "\u6a2a\u6392"
      }
    }
  ],
  "file_attributes": {}
}